{
  "realm" : "necropolis",
  "users" : [ {
    "id" : "0e7d17bb-1eaa-4e02-a054-0d5c9ab8f150",
    "createdTimestamp" : 1695279285930,
    "username" : "cadaver",
    "enabled" : true,
    "totp" : false,
    "emailVerified" : true,
    "firstName" : "",
    "lastName" : "",
    "credentials" : [ {
      "id" : "d70bf800-98f2-4c0f-b75c-d3a9831a8507",
      "type" : "password",
      "userLabel" : "My password",
      "createdDate" : 1695279330780,
      "secretData" : "{\"value\":\"FTjwoTY4u4xa8DkknebRL4Yn3pbRDyY50v1MViTwC2A=\",\"salt\":\"uvWi65za5fnaqeyj3c8EPQ==\",\"additionalParameters\":{}}",
      "credentialData" : "{\"hashIterations\":27500,\"algorithm\":\"pbkdf2-sha256\",\"additionalParameters\":{}}"
    } ],
    "disableableCredentialTypes" : [ ],
    "requiredActions" : [ ],
    "realmRoles" : [ "default-roles-necropolis", "admin_user" ],
    "clientRoles" : {
      "cadaver-rest-api" : [ "cadaver_admin" ]
    },
    "notBefore" : 0,
    "groups" : [ ]
  } ]
}